[
  {
    "id": 5,
    "pt_familia": "Aparelho de Uso Geral",
    "en_familia": "General Purpose Devices",
    "es_familia": "Aparatos Uso General",
    "adere_tipo": 3
  },
  {
    "id": 6,
    "pt_familia": "Etiquetas em Rolo",
    "en_familia": "Labels in Rolls",
    "es_familia": "Etiquetas en Ruedo",
    "adere_tipo": 4
  },
  {
    "id": 7,
    "pt_familia": "Etiquetas Encarteladas",
    "en_familia": "Labels in Displays",
    "es_familia": "Etiquetas en plancha",
    "adere_tipo": 4
  },
  {
    "id": 8,
    "pt_familia": "Recados Auto-Adesivos Removíveis",
    "en_familia": "Mensajes Autoadhesivos Removibles",
    "es_familia": "Self-Adhesive Removable Notes",
    "adere_tipo": 4
  },
  {
    "id": 9,
    "pt_familia": "Fita Crepe Automotiva",
    "en_familia": "Automotive Crepe Adhesive Tape",
    "es_familia": "Cinta Crepe Automovilística",
    "adere_tipo": 5
  },
  {
    "id": 10,
    "pt_familia": "Fita Crepe Escolar",
    "en_familia": "Cinta Crepe Escolar",
    "es_familia": "School-Grade Crepe Adhesive Tape",
    "adere_tipo": 5
  },
  {
    "id": 11,
    "pt_familia": "Fita Crepe para Fralda",
    "en_familia": "Crepe Adhesive Tape for Diapers",
    "es_familia": "Cinta Crepe para Pañal",
    "adere_tipo": 5
  },
  {
    "id": 12,
    "pt_familia": "Fita Crepe Uso Geral",
    "en_familia": "General Purpose Crepe Adhesive Tape",
    "es_familia": "Cinta Crepe Uso General",
    "adere_tipo": 5
  },
  {
    "id": 13,
    "pt_familia": "Máscara de Transferência",
    "en_familia": "Application Tape",
    "es_familia": "Papel Posicionador",
    "adere_tipo": 5
  },
  {
    "id": 40,
    "pt_familia": "Fita Crepe Hospitalar",
    "en_familia": "Hospital Masking Tape",
    "es_familia": "Cinta para uso Hospitalario",
    "adere_tipo": 5
  },
  {
    "id": 15,
    "pt_familia": "Fita de Empacotamento Uso Geral",
    "en_familia": "General Purpose Packaging Tape",
    "es_familia": "Cinta de Empaque Uso General",
    "adere_tipo": 7
  },
  {
    "id": 16,
    "pt_familia": "Fita de Tecido",
    "en_familia": "Fabric Tapes",
    "es_familia": "Cinta de Tejido",
    "adere_tipo": 8
  },
  {
    "id": 28,
    "pt_familia": "Fitas de Tecido",
    "en_familia": "Fabric Tape",
    "es_familia": "Cinta de Tejido",
    "adere_tipo": 8
  },
  {
    "id": 32,
    "pt_familia": "Dupla Face de Papel",
    "en_familia": "Paper Double Sided",
    "es_familia": "Doble Cara de Papel",
    "adere_tipo": 9
  },
  {
    "id": 33,
    "pt_familia": "Dupla Face de Polipropileno",
    "en_familia": "Polypropylene Double Sided",
    "es_familia": "Doble Cara de Polipropileno",
    "adere_tipo": 9
  },
  {
    "id": 34,
    "pt_familia": "Dupla Face de Tecido",
    "en_familia": "Fabric Double Sided",
    "es_familia": "Doble Cara de Tejido",
    "adere_tipo": 9
  },
  {
    "id": 35,
    "pt_familia": "Dupla Face Linha Puxa Fácil",
    "en_familia": "Double Sided Easy-Removal System",
    "es_familia": "Doble Cara Línea Tira-Fácil",
    "adere_tipo": 9
  },
  {
    "id": 36,
    "pt_familia": "Fita de Adesivo Transferível",
    "en_familia": "Transfer Tape",
    "es_familia": "Cinta Adhesiva Transferible",
    "adere_tipo": 9
  },
  {
    "id": 39,
    "pt_familia": "Fita Dupla Face de Não-Tecido",
    "en_familia": "Double Face Tape Non Woven",
    "es_familia": "Doble Cara Cinta de No Tejido",
    "adere_tipo": 9
  },
  {
    "id": 43,
    "pt_familia": "Dupla Face de Polietileno",
    "en_familia": "Polyethylene Double Sided",
    "es_familia": "Doble Cara de Polietileno",
    "adere_tipo": 9
  },
  {
    "id": 44,
    "pt_familia": "Dupla Face de Poliéster",
    "en_familia": "Polyester Double Sided",
    "es_familia": "Doble Cara de Poliéster",
    "adere_tipo": 9
  },
  {
    "id": 29,
    "pt_familia": "Dupla Face para Fixação",
    "en_familia": "Double Sided for Fastening",
    "es_familia": "Doble Cara para Fijación",
    "adere_tipo": 10
  },
  {
    "id": 30,
    "pt_familia": "Linha ADERMAX - Dupla Face de Alta Performance",
    "en_familia": "ADERMAX Line - Double Sided with High Performance",
    "es_familia": "Línea ADERMAX - doble cara de Alta Performance",
    "adere_tipo": 10
  },
  {
    "id": 31,
    "pt_familia": "Dupla Face para Flexografia",
    "en_familia": "Double Sided for Flexography",
    "es_familia": "Doble Cara para Flexografia",
    "adere_tipo": 10
  },
  {
    "id": 21,
    "pt_familia": "Fita Isolante",
    "en_familia": "Isolating Tape",
    "es_familia": "Cinta Aislante",
    "adere_tipo": 11
  },
  {
    "id": 22,
    "pt_familia": "Fita Veda Rosca",
    "en_familia": "Thread Sealing Tape",
    "es_familia": "Cinta Cierre-Rosca",
    "adere_tipo": 11
  },
  {
    "id": 23,
    "pt_familia": "Fita de Alumínio",
    "en_familia": "Aluminum Foil Adhesive Tape",
    "es_familia": "Cinta de Aluminio",
    "adere_tipo": 11
  },
  {
    "id": 24,
    "pt_familia": "Fita Demarcação de Solo",
    "en_familia": "Floor Marking Tape",
    "es_familia": "Cinta de Demarcación de Suelos",
    "adere_tipo": 11
  },
  {
    "id": 25,
    "pt_familia": "Fita de Espuma para Vedação",
    "en_familia": "Foam Sealing Tape",
    "es_familia": "Cinta de Espuma para Sello",
    "adere_tipo": 11
  },
  {
    "id": 26,
    "pt_familia": "Silver Tape",
    "en_familia": "Silver Tape",
    "es_familia": "Silver Tape",
    "adere_tipo": 11
  },
  {
    "id": 27,
    "pt_familia": "Fita Antiderrapante",
    "en_familia": "Antislip Tape",
    "es_familia": "Tira Antiderrapante",
    "adere_tipo": 11
  },
  {
    "id": 37,
    "pt_familia": "Fita Adesiva de Polietileno",
    "en_familia": "Polietileno",
    "es_familia": "Polietileno",
    "adere_tipo": 11
  },
  {
    "id": 38,
    "pt_familia": "Máscara de Transferência Transparente",
    "en_familia": "Transfer transparent mask",
    "es_familia": "Máscara de Transferencia Transparente",
    "adere_tipo": 11
  },
  {
    "id": 41,
    "pt_familia": "Máscara de Transferência Crepe",
    "en_familia": "Transfer Mask",
    "es_familia": "Mascara Transferible",
    "adere_tipo": 11
  },
  {
    "id": 42,
    "pt_familia": "Máscara de Transferência Crepe",
    "en_familia": "Transfer Mask",
    "es_familia": "Mascara Transferible",
    "adere_tipo": 11
  },
  {
    "id": 45,
    "pt_familia": "Fita para Acabamento de Pintura",
    "en_familia": "Tape for Finishing Painting",
    "es_familia": "Cinta para la pintura de acabado",
    "adere_tipo": 11
  },
  {
    "id": 46,
    "pt_familia": "Fita Filamentosa",
    "en_familia": "Filamentous Tape",
    "es_familia": "Fita Filamentosa",
    "adere_tipo": 11
  },
  {
    "id": 47,
    "pt_familia": "Fita para Isolamento Elétrico",
    "en_familia": "Tape for Electrical Insulation",
    "es_familia": "Cinta de Aislamiento Eléctrico",
    "adere_tipo": 11
  },
  {
    "id": 48,
    "pt_familia": "Isolamento de Área",
    "en_familia": "Isolation Area",
    "es_familia": "Aislamiento Area",
    "adere_tipo": 11
  },
  {
    "id": 20,
    "pt_familia": "Fita Kraft",
    "en_familia": "Kraft Tape",
    "es_familia": "Cinta Kraft",
    "adere_tipo": 12
  },
  {
    "id": 17,
    "pt_familia": "Papel Couchê",
    "en_familia": "Couche Paper",
    "es_familia": "Papel Couché",
    "adere_tipo": 13
  },
  {
    "id": 18,
    "pt_familia": "Papel Fosco",
    "en_familia": "Opaque Paper",
    "es_familia": "Papel Rústico",
    "adere_tipo": 13
  },
  {
    "id": 19,
    "pt_familia": "Papel Siliconizado",
    "en_familia": "Siliconized Paper",
    "es_familia": "Papel Siliconados",
    "adere_tipo": 13
  },
  {
    "id": 49,
    "pt_familia": "Álcool",
    "en_familia": "Álcool",
    "es_familia": "Álcool",
    "adere_tipo": 14
  }
]